…
[1] "Getting data for fundraiser with id 13386351"
[1] "Getting data for fundraiser with id 13385642"
[1] "Getting data for fundraiser with id 13385995"
[1] "Getting data for fundraiser with id 13386653"
[1] "Getting data for fundraiser with id 13386134"
[1] "Getting data for fundraiser with id 13386153"
[1] "Getting data for fundraiser with id 13385896"
[1] "Getting data for fundraiser with id 13385549"
[1] "Getting data for fundraiser with id 13387211"
[1] "Getting data for fundraiser with id 13386061"
[1] "Getting data for fundraiser with id 13386082"
[1] "Getting data for fundraiser with id 13386364"
[1] "Getting data for fundraiser with id 13386144"
`summarise()` ungrouping output (override with `.groups` argument)
# A tibble: 13 x 3
   charity.name                                        N mode.charity.id
   <chr>                                           <int> <chr>          
 1 Macmillan Cancer Support                           29 2116           
 2 Cancer Research UK                                 22 2357           
 3 British Heart Foundation                            6 183092         
 4 WWF-UK                                              6 2344           
 5 Great Ormond Street Hospital Children's Charity     3 254            
 6 WaterAid                                            3 54697          
 7 Guide Dogs                                          2 2261           
 8 Marie Curie                                         2 50             
 9 Unicef UK                                           2 181813         
10 CARE International UK                               1 180            
# ... with 3 more rows
…
